<?xml version="1.0" encoding="UTF-8"?>
<session version="1.0">
<refactoring comment="Delete resource &apos;jss_nba&apos;" deleteContents="true" description="Delete resource &apos;jss_nba&apos;" element1="/jss_nba" flags="7" id="org.eclipse.ltk.core.refactoring.delete.resources" resources="1" stamp="1448980435084"/>
</session>