127.0.0.1 - - [15/Mar/2016:23:51:07 +0530] "GET / HTTP/1.1" 404 951
0:0:0:0:0:0:0:1 - - [15/Mar/2016:23:51:07 +0530] "GET /jss_nba/html/sample.html HTTP/1.1" 304 -
0:0:0:0:0:0:0:1 - - [15/Mar/2016:23:51:08 +0530] "GET /jss_nba/bootstrap/inc/animations/css/animate.min.css HTTP/1.1" 304 -
0:0:0:0:0:0:0:1 - - [15/Mar/2016:23:51:08 +0530] "GET /jss_nba/bootstrap/inc/owl-carousel/css/owl.theme.css HTTP/1.1" 304 -
0:0:0:0:0:0:0:1 - - [15/Mar/2016:23:51:08 +0530] "GET /jss_nba/bootstrap/css/style.css HTTP/1.1" 304 -
0:0:0:0:0:0:0:1 - - [15/Mar/2016:23:51:08 +0530] "GET /jss_nba/bootstrap/css/reset.css HTTP/1.1" 304 -
0:0:0:0:0:0:0:1 - - [15/Mar/2016:23:51:08 +0530] "GET /jss_nba/bootstrap/css/skin/cool-gray.css HTTP/1.1" 304 -
0:0:0:0:0:0:0:1 - - [15/Mar/2016:23:51:08 +0530] "GET /jss_nba/bootstrap/inc/owl-carousel/css/owl.carousel.css HTTP/1.1" 304 -
0:0:0:0:0:0:0:1 - - [15/Mar/2016:23:51:08 +0530] "GET /jss_nba/bootstrap/inc/bootstrap/css/bootstrap.min.css HTTP/1.1" 304 -
0:0:0:0:0:0:0:1 - - [15/Mar/2016:23:51:08 +0530] "GET /jss_nba/bootstrap/css/mobile.css HTTP/1.1" 304 -
0:0:0:0:0:0:0:1 - - [15/Mar/2016:23:51:08 +0530] "GET /jss_nba/bootstrap/inc/bootstrap/js/bootstrap.min.js HTTP/1.1" 304 -
0:0:0:0:0:0:0:1 - - [15/Mar/2016:23:51:08 +0530] "GET /jss_nba/bootstrap/inc/font-awesome/css/font-awesome.min.css HTTP/1.1" 304 -
0:0:0:0:0:0:0:1 - - [15/Mar/2016:23:51:08 +0530] "GET /jss_nba/bootstrap/inc/owl-carousel/js/owl.carousel.min.js HTTP/1.1" 304 -
0:0:0:0:0:0:0:1 - - [15/Mar/2016:23:51:08 +0530] "GET /jss_nba/bootstrap/inc/waypoints.min.js HTTP/1.1" 304 -
0:0:0:0:0:0:0:1 - - [15/Mar/2016:23:51:08 +0530] "GET /jss_nba/bootstrap/inc/classie.js HTTP/1.1" 304 -
0:0:0:0:0:0:0:1 - - [15/Mar/2016:23:51:08 +0530] "GET /jss_nba/bootstrap/inc/isotope.pkgd.min.js HTTP/1.1" 304 -
0:0:0:0:0:0:0:1 - - [15/Mar/2016:23:51:08 +0530] "GET /jss_nba/bootstrap/inc/animations/js/wow.min.js HTTP/1.1" 304 -
0:0:0:0:0:0:0:1 - - [15/Mar/2016:23:51:08 +0530] "GET /jss_nba/bootstrap/inc/jquery.easing.min.js HTTP/1.1" 304 -
0:0:0:0:0:0:0:1 - - [15/Mar/2016:23:51:08 +0530] "GET /jss_nba/bootstrap/inc/jquery.counterup.min.js HTTP/1.1" 304 -
0:0:0:0:0:0:0:1 - - [15/Mar/2016:23:51:08 +0530] "GET /jss_nba/bootstrap/inc/smoothscroll.js HTTP/1.1" 304 -
0:0:0:0:0:0:0:1 - - [15/Mar/2016:23:51:08 +0530] "GET /jss_nba/bootstrap/inc/stellar/js/jquery.stellar.min.js HTTP/1.1" 304 -
0:0:0:0:0:0:0:1 - - [15/Mar/2016:23:51:08 +0530] "GET /jss_nba/bootstrap/js/theme.js HTTP/1.1" 304 -
0:0:0:0:0:0:0:1 - - [15/Mar/2016:23:51:08 +0530] "GET /jss_nba/bootstrap/inc/jquery/jquery-1.11.1.min.js HTTP/1.1" 304 -
0:0:0:0:0:0:0:1 - - [15/Mar/2016:23:51:08 +0530] "GET /jss_nba/bootstrap/img/team/1.jpg HTTP/1.1" 304 -
0:0:0:0:0:0:0:1 - - [15/Mar/2016:23:51:09 +0530] "GET /jss_nba/bootstrap/img/page-loader.gif HTTP/1.1" 304 -
0:0:0:0:0:0:0:1 - - [15/Mar/2016:23:51:09 +0530] "GET /jss_nba/bootstrap/img/logo.png HTTP/1.1" 304 -
0:0:0:0:0:0:0:1 - - [15/Mar/2016:23:51:09 +0530] "GET /jss_nba/bootstrap/img/slider-bg.jpg HTTP/1.1" 304 -
0:0:0:0:0:0:0:1 - - [15/Mar/2016:23:51:09 +0530] "GET /jss_nba/bootstrap/img/devider.png HTTP/1.1" 304 -
0:0:0:0:0:0:0:1 - - [15/Mar/2016:23:51:09 +0530] "GET /jss_nba/bootstrap/inc/font-awesome/fonts/fontawesome-webfont.woff2?v=4.3.0 HTTP/1.1" 304 -
0:0:0:0:0:0:0:1 - - [15/Mar/2016:23:51:09 +0530] "GET /jss_nba/html/img/map-bg.jpg HTTP/1.1" 404 1005
0:0:0:0:0:0:0:1 - - [15/Mar/2016:23:51:09 +0530] "GET /jss_nba/bootstrap/img/testimonial-bg.jpg HTTP/1.1" 304 -
0:0:0:0:0:0:0:1 - - [15/Mar/2016:23:51:12 +0530] "GET /favicon.ico HTTP/1.1" 404 973
0:0:0:0:0:0:0:1 - - [15/Mar/2016:23:51:39 +0530] "POST /jss_nba/login HTTP/1.1" 302 -
0:0:0:0:0:0:0:1 - - [15/Mar/2016:23:51:39 +0530] "GET /jss_nba/jsp/Teacher.jsp HTTP/1.1" 200 7487
0:0:0:0:0:0:0:1 - - [15/Mar/2016:23:51:40 +0530] "GET /jss_nba/images/2.jpg HTTP/1.1" 304 -
0:0:0:0:0:0:0:1 - - [15/Mar/2016:23:51:40 +0530] "GET /jss_nba/images/9.jpg HTTP/1.1" 404 991
0:0:0:0:0:0:0:1 - - [15/Mar/2016:23:51:40 +0530] "GET /jss_nba/images/1.jpg HTTP/1.1" 404 991
0:0:0:0:0:0:0:1 - - [15/Mar/2016:23:51:44 +0530] "POST /jss_nba/deladdsub?us=ECS801 HTTP/1.1" 200 8
0:0:0:0:0:0:0:1 - - [15/Mar/2016:23:51:45 +0530] "POST /jss_nba/deladdsub?us=ECS801 HTTP/1.1" 200 8
0:0:0:0:0:0:0:1 - - [15/Mar/2016:23:51:46 +0530] "POST /jss_nba/deladdsub?us=ECS801 HTTP/1.1" 200 8
0:0:0:0:0:0:0:1 - - [15/Mar/2016:23:51:48 +0530] "POST /jss_nba/deladdsub?us=ECS801 HTTP/1.1" 200 8
0:0:0:0:0:0:0:1 - - [15/Mar/2016:23:51:51 +0530] "GET /jss_nba/jsp/LogOut.jsp HTTP/1.1" 302 -
0:0:0:0:0:0:0:1 - - [15/Mar/2016:23:51:52 +0530] "GET /jss_nba/jsp/temp2.jsp HTTP/1.1" 302 -
0:0:0:0:0:0:0:1 - - [15/Mar/2016:23:51:52 +0530] "GET /jss_nba/html/img/map-bg.jpg HTTP/1.1" 404 1005
0:0:0:0:0:0:0:1 - - [15/Mar/2016:23:55:55 +0530] "POST /jss_nba/login HTTP/1.1" 302 -
0:0:0:0:0:0:0:1 - - [15/Mar/2016:23:55:55 +0530] "GET /jss_nba/jsp/Teacher.jsp HTTP/1.1" 200 6434
0:0:0:0:0:0:0:1 - - [15/Mar/2016:23:55:55 +0530] "GET /jss_nba/images/1.jpg HTTP/1.1" 404 991
0:0:0:0:0:0:0:1 - - [15/Mar/2016:23:55:55 +0530] "GET /jss_nba/images/9.jpg HTTP/1.1" 404 991
0:0:0:0:0:0:0:1 - - [15/Mar/2016:23:56:04 +0530] "GET /jss_nba/jsp/followSub.jsp HTTP/1.1" 200 6685
0:0:0:0:0:0:0:1 - - [15/Mar/2016:23:56:04 +0530] "GET /jss_nba/images/1.jpg HTTP/1.1" 404 991
0:0:0:0:0:0:0:1 - - [15/Mar/2016:23:56:04 +0530] "GET /jss_nba/images/9.jpg HTTP/1.1" 404 991
0:0:0:0:0:0:0:1 - - [15/Mar/2016:23:56:09 +0530] "GET /jss_nba/deladdsub?us=ECS801 HTTP/1.1" 200 14
0:0:0:0:0:0:0:1 - - [15/Mar/2016:23:58:56 +0530] "GET /jss_nba/jsp/followSub.jsp HTTP/1.1" 200 6445
0:0:0:0:0:0:0:1 - - [15/Mar/2016:23:58:56 +0530] "GET /jss_nba/bootstrap/inc/bootstrap/css/bootstrap.min.css HTTP/1.1" 304 -
0:0:0:0:0:0:0:1 - - [15/Mar/2016:23:58:56 +0530] "GET /jss_nba/bootstrap/inc/animations/css/animate.min.css HTTP/1.1" 304 -
0:0:0:0:0:0:0:1 - - [15/Mar/2016:23:58:56 +0530] "GET /jss_nba/bootstrap/inc/owl-carousel/css/owl.carousel.css HTTP/1.1" 304 -
0:0:0:0:0:0:0:1 - - [15/Mar/2016:23:58:56 +0530] "GET /jss_nba/bootstrap/inc/font-awesome/css/font-awesome.min.css HTTP/1.1" 304 -
0:0:0:0:0:0:0:1 - - [15/Mar/2016:23:58:56 +0530] "GET /jss_nba/bootstrap/inc/owl-carousel/css/owl.theme.css HTTP/1.1" 304 -
0:0:0:0:0:0:0:1 - - [15/Mar/2016:23:58:56 +0530] "GET /jss_nba/bootstrap/css/reset.css HTTP/1.1" 304 -
0:0:0:0:0:0:0:1 - - [15/Mar/2016:23:58:56 +0530] "GET /jss_nba/bootstrap/css/style.css HTTP/1.1" 304 -
0:0:0:0:0:0:0:1 - - [15/Mar/2016:23:58:56 +0530] "GET /jss_nba/bootstrap/css/mobile.css HTTP/1.1" 304 -
0:0:0:0:0:0:0:1 - - [15/Mar/2016:23:58:56 +0530] "GET /jss_nba/bootstrap/inc/jquery/jquery-1.11.1.min.js HTTP/1.1" 304 -
0:0:0:0:0:0:0:1 - - [15/Mar/2016:23:58:56 +0530] "GET /jss_nba/bootstrap/css/skin/cool-gray.css HTTP/1.1" 304 -
0:0:0:0:0:0:0:1 - - [15/Mar/2016:23:58:56 +0530] "GET /jss_nba/bootstrap/inc/bootstrap/js/bootstrap.min.js HTTP/1.1" 304 -
0:0:0:0:0:0:0:1 - - [15/Mar/2016:23:58:56 +0530] "GET /jss_nba/bootstrap/inc/owl-carousel/js/owl.carousel.min.js HTTP/1.1" 304 -
0:0:0:0:0:0:0:1 - - [15/Mar/2016:23:58:56 +0530] "GET /jss_nba/bootstrap/inc/stellar/js/jquery.stellar.min.js HTTP/1.1" 304 -
0:0:0:0:0:0:0:1 - - [15/Mar/2016:23:58:56 +0530] "GET /jss_nba/bootstrap/inc/animations/js/wow.min.js HTTP/1.1" 304 -
0:0:0:0:0:0:0:1 - - [15/Mar/2016:23:58:56 +0530] "GET /jss_nba/bootstrap/js/theme.js HTTP/1.1" 304 -
0:0:0:0:0:0:0:1 - - [15/Mar/2016:23:58:56 +0530] "GET /jss_nba/bootstrap/inc/isotope.pkgd.min.js HTTP/1.1" 304 -
0:0:0:0:0:0:0:1 - - [15/Mar/2016:23:58:56 +0530] "GET /jss_nba/images/2.jpg HTTP/1.1" 304 -
0:0:0:0:0:0:0:1 - - [15/Mar/2016:23:58:56 +0530] "GET /jss_nba/images/1.jpg HTTP/1.1" 404 991
0:0:0:0:0:0:0:1 - - [15/Mar/2016:23:58:56 +0530] "GET /jss_nba/images/9.jpg HTTP/1.1" 404 991
0:0:0:0:0:0:0:1 - - [15/Mar/2016:23:58:56 +0530] "GET /jss_nba/jsp/calculation.jsp HTTP/1.1" 200 11108
0:0:0:0:0:0:0:1 - - [15/Mar/2016:23:58:56 +0530] "GET /jss_nba/images/1.jpg HTTP/1.1" 404 991
0:0:0:0:0:0:0:1 - - [15/Mar/2016:23:58:56 +0530] "GET /jss_nba/images/9.jpg HTTP/1.1" 404 991
0:0:0:0:0:0:0:1 - - [15/Mar/2016:23:58:58 +0530] "GET /jss_nba/jsp/Teacher.jsp HTTP/1.1" 200 6785
0:0:0:0:0:0:0:1 - - [15/Mar/2016:23:58:58 +0530] "GET /jss_nba/images/1.jpg HTTP/1.1" 404 991
0:0:0:0:0:0:0:1 - - [15/Mar/2016:23:58:58 +0530] "GET /jss_nba/images/9.jpg HTTP/1.1" 404 991
0:0:0:0:0:0:0:1 - - [15/Mar/2016:23:59:00 +0530] "POST /jss_nba/deladdsub?us=ECS801 HTTP/1.1" 200 8
0:0:0:0:0:0:0:1 - - [15/Mar/2016:23:59:02 +0530] "GET /jss_nba/jsp/followSub.jsp HTTP/1.1" 200 6680
0:0:0:0:0:0:0:1 - - [15/Mar/2016:23:59:02 +0530] "GET /jss_nba/images/1.jpg HTTP/1.1" 404 991
0:0:0:0:0:0:0:1 - - [15/Mar/2016:23:59:02 +0530] "GET /jss_nba/images/9.jpg HTTP/1.1" 404 991
0:0:0:0:0:0:0:1 - - [15/Mar/2016:23:59:04 +0530] "GET /jss_nba/deladdsub?us=ECS801 HTTP/1.1" 200 14
0:0:0:0:0:0:0:1 - - [15/Mar/2016:23:59:06 +0530] "GET /jss_nba/deladdsub?us=ECS073 HTTP/1.1" 200 14
0:0:0:0:0:0:0:1 - - [15/Mar/2016:23:59:07 +0530] "GET /jss_nba/deladdsub?us=EIT082 HTTP/1.1" 200 14
0:0:0:0:0:0:0:1 - - [15/Mar/2016:23:59:09 +0530] "GET /jss_nba/jsp/Teacher.jsp HTTP/1.1" 200 7515
0:0:0:0:0:0:0:1 - - [15/Mar/2016:23:59:09 +0530] "GET /jss_nba/images/1.jpg HTTP/1.1" 404 991
0:0:0:0:0:0:0:1 - - [15/Mar/2016:23:59:09 +0530] "GET /jss_nba/images/9.jpg HTTP/1.1" 404 991
0:0:0:0:0:0:0:1 - - [15/Mar/2016:23:59:12 +0530] "GET /jss_nba/jsp/followSub.jsp HTTP/1.1" 200 7485
0:0:0:0:0:0:0:1 - - [15/Mar/2016:23:59:12 +0530] "GET /jss_nba/images/1.jpg HTTP/1.1" 404 991
0:0:0:0:0:0:0:1 - - [15/Mar/2016:23:59:12 +0530] "GET /jss_nba/images/9.jpg HTTP/1.1" 404 991
0:0:0:0:0:0:0:1 - - [15/Mar/2016:23:59:17 +0530] "GET /jss_nba/jsp/Teacher.jsp HTTP/1.1" 200 7515
0:0:0:0:0:0:0:1 - - [15/Mar/2016:23:59:17 +0530] "GET /jss_nba/images/1.jpg HTTP/1.1" 404 991
0:0:0:0:0:0:0:1 - - [15/Mar/2016:23:59:17 +0530] "GET /jss_nba/images/9.jpg HTTP/1.1" 404 991
0:0:0:0:0:0:0:1 - - [15/Mar/2016:23:59:19 +0530] "POST /jss_nba/deladdsub?us=ECS073 HTTP/1.1" 200 8
0:0:0:0:0:0:0:1 - - [15/Mar/2016:23:59:20 +0530] "POST /jss_nba/deladdsub?us=EIT082 HTTP/1.1" 200 8
0:0:0:0:0:0:0:1 - - [15/Mar/2016:23:59:23 +0530] "GET /jss_nba/jsp/followSub.jsp HTTP/1.1" 200 6445
0:0:0:0:0:0:0:1 - - [15/Mar/2016:23:59:23 +0530] "GET /jss_nba/images/1.jpg HTTP/1.1" 404 991
0:0:0:0:0:0:0:1 - - [15/Mar/2016:23:59:23 +0530] "GET /jss_nba/images/9.jpg HTTP/1.1" 404 991
0:0:0:0:0:0:0:1 - - [15/Mar/2016:23:59:25 +0530] "GET /jss_nba/jsp/Teacher.jsp HTTP/1.1" 200 6785
0:0:0:0:0:0:0:1 - - [15/Mar/2016:23:59:26 +0530] "GET /jss_nba/images/1.jpg HTTP/1.1" 404 991
0:0:0:0:0:0:0:1 - - [15/Mar/2016:23:59:26 +0530] "GET /jss_nba/images/9.jpg HTTP/1.1" 404 991
0:0:0:0:0:0:0:1 - - [15/Mar/2016:23:59:27 +0530] "POST /jss_nba/deladdsub?us=ECS801 HTTP/1.1" 200 8
0:0:0:0:0:0:0:1 - - [15/Mar/2016:23:59:29 +0530] "GET /jss_nba/jsp/followSub.jsp HTTP/1.1" 200 6680
0:0:0:0:0:0:0:1 - - [15/Mar/2016:23:59:29 +0530] "GET /jss_nba/images/1.jpg HTTP/1.1" 404 991
0:0:0:0:0:0:0:1 - - [15/Mar/2016:23:59:29 +0530] "GET /jss_nba/images/9.jpg HTTP/1.1" 404 991
0:0:0:0:0:0:0:1 - - [15/Mar/2016:23:59:34 +0530] "GET /jss_nba/jsp/uploadpic.jsp HTTP/1.1" 200 1630
0:0:0:0:0:0:0:1 - - [15/Mar/2016:23:59:34 +0530] "GET /e-canvass/bootstrap/bootstrap.css HTTP/1.1" 404 1017
0:0:0:0:0:0:0:1 - - [15/Mar/2016:23:59:34 +0530] "GET /e-canvass/bootstrap/bootstrap-responsive.min.css HTTP/1.1" 404 1047
0:0:0:0:0:0:0:1 - - [15/Mar/2016:23:59:34 +0530] "GET /e-canvass/bootstrap/bootstrap-responsive.css HTTP/1.1" 404 1039
0:0:0:0:0:0:0:1 - - [15/Mar/2016:23:59:34 +0530] "GET /e-canvass/bootstrap/bootstrap.min.css HTTP/1.1" 404 1025
0:0:0:0:0:0:0:1 - - [15/Mar/2016:23:59:35 +0530] "GET /e-canvass/bootstrap/bootstrap.js HTTP/1.1" 404 1015
0:0:0:0:0:0:0:1 - - [15/Mar/2016:23:59:35 +0530] "GET /e-canvass/bootstrap/bootstrap.min.js HTTP/1.1" 404 1023
0:0:0:0:0:0:0:1 - - [15/Mar/2016:23:59:35 +0530] "GET /e-canvass/images/unknown_male_profile.jpg HTTP/1.1" 404 1033
0:0:0:0:0:0:0:1 - - [15/Mar/2016:23:59:35 +0530] "GET /jss_nba/images/1.jpg HTTP/1.1" 404 991
